<?xml version="1.0" encoding="utf-8"?>
<!-- Generator: Adobe Illustrator 24.0.0, SVG Export Plug-In . SVG Version: 6.00 Build 0)  -->
<svg version="1.1" id="Layer_1" xmlns="http://www.w3.org/2000/svg" xmlns:xlink="http://www.w3.org/1999/xlink" x="0px" y="0px"
	 viewBox="0 0 100 100" enable-background="new 0 0 100 100" xml:space="preserve">
<circle fill="#FFFFFF" cx="50" cy="50" r="50"/>
<g>
	<path fill="#33CCFF" d="M37.13,59.96l39.8-31.69l-1.71-2.17l7.49-1.1l-2.82,7.05l-1.71-2.17L38.6,61.66
		C38.6,61.66,37.18,59.98,37.13,59.96z"/>
	<rect x="46.75" y="66.24" fill="#33CCFF" width="5.25" height="8.73"/>
	<g>
		<rect x="38.01" y="70.59" fill="#33CCFF" width="5.25" height="4.35"/>
		<rect x="55.5" y="60.33" fill="#33CCFF" width="5.25" height="14.64"/>
	</g>
	<rect x="64.24" y="52.63" fill="#33CCFF" width="5.25" height="22.33"/>
	<rect x="72.98" y="45.69" fill="#33CCFF" width="5.25" height="29.28"/>
	<rect x="81.73" y="36.32" fill="#33CCFF" width="5.25" height="38.68"/>
</g>
<g>
	<path fill="#F1592F" d="M53.8,66.26c0-9.89-9.58-29.89-21.4-29.89S11,56.37,11,66.26S20.58,77.5,32.4,77.5S53.8,76.15,53.8,66.26z"
		/>
	<path fill="#E34E30" d="M37.72,37.58c1.88-2.59,3.08-6.03,3.08-8.21c0-3.87-3.76-4.4-8.4-4.4S24,25.5,24,29.37
		c0,2.18,1.2,5.63,3.08,8.21H37.72z"/>
	<path fill="#F1592F" d="M35,37.58c1.09-3.03,1.8-7.33,1.8-10.01c0-4.46-1.97-5.07-4.41-5.07c-2.43,0-4.41,0.61-4.41,5.07
		c0,2.67,0.71,6.98,1.8,10.01H35z"/>
	<g>
		<path fill="#E8E7E8" d="M40.1,39.25H24.7c-0.36,0-0.65-0.29-0.65-0.65v-1.58c0-0.36,0.29-0.65,0.65-0.65H40.1
			c0.36,0,0.65,0.29,0.65,0.65v1.58C40.75,38.96,40.46,39.25,40.1,39.25z"/>
		<path fill="#E8E7E8" d="M20.83,47.02c0.44-3.59,1.64-6.02,2.71-7.54c-1.57,0.58-3.51,1.78-4.77,4.31
			c-0.5,1.01-2.13,0.19-1.63-0.81c2.81-5.66,8.6-5.74,8.85-5.74l2.87-0.01l-2.26,1.57c-0.03,0.02-3.22,2.35-3.98,8.51
			C22.47,48.42,20.69,48.14,20.83,47.02z"/>
	</g>
	<circle fill="#F5EA07" cx="32.4" cy="58.09" r="13.06"/>
	<g>
		<path fill="#E8BB20" d="M32.4,69.28c-6.17,0-11.19-5.02-11.19-11.19S26.23,46.9,32.4,46.9s11.19,5.02,11.19,11.19
			S38.57,69.28,32.4,69.28z M32.4,48.87c-5.08,0-9.22,4.13-9.22,9.22s4.13,9.22,9.22,9.22s9.22-4.13,9.22-9.22
			S37.48,48.87,32.4,48.87z"/>
		<path fill="#E8BB20" d="M32.04,64.86v-1.19c-1.49-0.15-2.83-0.75-4.02-1.78l1.19-1.42c0.91,0.79,1.86,1.27,2.82,1.42v-3.17
			c-1.23-0.29-2.13-0.68-2.7-1.16c-0.57-0.48-0.86-1.19-0.86-2.13s0.33-1.71,0.99-2.31c0.66-0.6,1.52-0.92,2.57-0.98v-0.82h1.05
			v0.83c1.2,0.09,2.33,0.5,3.4,1.22l-1.06,1.5c-0.72-0.51-1.5-0.83-2.33-0.95V57h0.05c1.25,0.29,2.17,0.69,2.76,1.19
			c0.59,0.5,0.88,1.23,0.88,2.18c0,0.95-0.34,1.73-1.01,2.33c-0.67,0.6-1.57,0.93-2.68,0.98v1.17L32.04,64.86L32.04,64.86
			L32.04,64.86z M30.89,54.32c-0.28,0.24-0.42,0.55-0.42,0.91s0.11,0.65,0.33,0.86c0.22,0.21,0.63,0.42,1.24,0.61v-2.82
			C31.55,53.93,31.17,54.07,30.89,54.32z M34.33,61.48c0.3-0.25,0.46-0.57,0.46-0.95c0-0.38-0.12-0.68-0.36-0.91
			c-0.24-0.22-0.69-0.43-1.34-0.63v2.94C33.61,61.88,34.02,61.73,34.33,61.48z"/>
	</g>
</g>
</svg>
